ds202_lab4_team
…
state <- bio2 %>%
  group_by(State) %>%
  summarize(
    count = length(State)) %>%
      arrange(count)
  
state

## # A tibble: 21 x 2
##    State        count
##    <chr>        <int>
##  1 " Ark."          1
##  2 " Australia"     1
##  3 " Mich"          1
##  4 " Miss."         1
##  5 " Neb."          1
##  6 " Pa."           1
##  7 " Calif."        2
##  8 " Mich."         2
##  9 " Okla."         2
## 10 " S.D."          2
## # ... with 11 more rows
…
defhome <- left_join(defClean,bio2)

## Joining, by = "Name"

defhome2 <-   defhome[!duplicated(defhome$Name), ]
defhome2 %>%
   group_by(Name) %>%
  summarize(City, State) 

## # A tibble: 37 x 3
##    Name              City          State   
##    <fct>             <chr>         <chr>   
##  1 Akers, Landen     Cedar Rapids  " Iowa" 
##  2 Azunna, Arnold    Grand Prairie " Texas"
##  3 Bailey, JaQuan    Jacksonville  " Fla." 
##  4 Bailey, Joshua    Jacksonville  " Fla." 
##  5 Bankston, Latrell <NA>           <NA>   
##  6 Brock, Jirehl     Quincy        " Ill." 
##  7 Chambers, Mason   Schertz       " Texas"
##  8 Davis, Dae'Shawn  Cleveland     " Ohio" 
##  9 Hathcock, Koby    Mesa          " Ariz."
## 10 Horne, Aric       Jacksonville  " Fla." 
## # ... with 27 more rows
…
